De,Para,Tipo,Fusivel,IpkNL,tdsNL,IpkFL,tdsFL,aiN,aiF
12,13,2,NaN,25.6495261286114,0.642336065146818,196.646366986021,0.0958884811065022,3033.52454755411,4013.29496602165
13,14,1,NaN,NaN,NaN,NaN,NaN,NaN,NaN
14,16,5,40,NaN,NaN,NaN,NaN,NaN,NaN
14,15,5,40,NaN,NaN,NaN,NaN,NaN,NaN
