De,Para,Tipo,Fusivel,IpkNL,tdsNL,IpkFL,tdsFL,aiN,aiF
48,49,2,NaN,10.2963158738372,0.192206252599391,78.9384216994182,0.1304740543066,3898.82113847236,4792.09447877111
49,50,1,NaN,NaN,NaN,NaN,NaN,NaN,NaN
50,51,1,NaN,NaN,NaN,NaN,NaN,NaN,NaN
51,52,5,10,NaN,NaN,NaN,NaN,NaN,NaN
