12	13	2	170.99684085740967	9032.493027190329	7822.368421052631	9376.361852322643	164.50868968612826	7363.106387489501	6376.637182333374	6755.110037791876	164.16320037928193
13	14	1	170.99684085740967	7363.106387489501	6376.637182333374	6755.110037791876	164.16320037928193	4013.29496602165	3475.6153934549543	3033.5245475541064	162.60246454716844
14	16	5	44.5847965128614	4013.29496602165	3475.6153934549543	3033.5245475541064	162.60246454716844	3623.2655732382036	3137.8400310818706	2687.587944614254	162.2277447407591
14	15	5	51.794323962908194	4013.29496602165	3475.6153934549543	3033.5245475541064	162.60246454716844	3874.4367497431695	3355.360650633596	2908.758786030586	162.4781336225193
