34	35	2	234.96055991765434	11424.951511095409	9894.298245614033	11942.656004833068	164.51653226982035	6630.4637944115575	5742.15008483337	5362.200058236859	163.65363854997454
35	36	1	234.96055991765434	6630.4637944115575	5742.15008483337	5362.200058236859	163.65363854997454	5123.043757757481	4436.68603891727	3889.835831355557	163.0581092905046
36	37	1	110.37628498523257	5123.043757757481	4436.68603891727	3889.835831355557	163.0581092905046	4167.028513297882	3608.752550810067	3050.3408110613	162.44744107529624
37	38	1	97.35360756254254	4167.028513297882	3608.752550810067	3050.3408110613	162.44744107529624	4016.6268868580523	3478.500921542677	2924.034492987495	162.32354388442624
38	39	3	85.82040152237286	4016.6268868580523	3478.500921542677	2924.034492987495	162.32354388442624	3251.761941107478	2816.1084480584736	2303.665082110456	161.50437499101972
39	40	1	33.44670223501124	3251.761941107478	2816.1084480584736	2303.665082110456	161.50437499101972	3071.411664014396	2659.920526516302	2162.4368678326814	161.2476281587937
40	41	1	27.33957005731355	3071.411664014396	2659.920526516302	2162.4368678326814	161.2476281587937	2009.6930448966257	1740.4452306893781	1366.2914817946732	158.70717873580304
41	42	1	21.20992892209161	2009.6930448966257	1740.4452306893781	1366.2914817946732	158.70717873580304	1956.2235430197782	1694.1392837363285	1327.6895780799175	158.4993596240872
42	43	1	20.045338262164833	1956.2235430197782	1694.1392837363285	1327.6895780799175	158.4993596240872	1905.51850509803	1650.2274327962411	1291.2080878657325	158.2905570998372
43	44	5	2.356373869162185	1905.51850509803	1650.2274327962411	1291.2080878657325	158.2905570998372	1811.5882898241803	1568.8814801861463	1223.9441393936384	157.87006547228165
43	46	5	16.561578794573403	1905.51850509803	1650.2274327962411	1291.2080878657325	158.2905570998372	1686.8287069893809	1460.836512085661	1135.232008401329	157.23234898734313
44	45	1	1.1782286222141372	1811.5882898241803	1568.8814801861463	1223.9441393936384	157.87006547228165	1601.0495439170575	1386.549577749661	1074.6474951669193	156.73079626159074
46	47	1	3.0758897517465122	1686.8287069893809	1460.836512085661	1135.232008401329	157.23234898734313	1502.7756302022706	1301.4418719433356	1005.6425186904878	156.07915154248127
