@BASE;;;;;;;;;
S_base (MVA);V_base (kVA);;;;;;;;
1;11;;;;;;;;
@BUS;;;;;;;;;
bus;type;P(kW);Q(kVAr);G;B;;;;
1;3;0;0;0;0;;;;
2;1;100;90;0;0;;;;
3;1;60;40;0;0;;;;
4;1;150;130;0;0;;;;
5;1;75;50;0;0;;;;
6;1;15;9;0;0;;;;
7;1;18;14;0;0;;;;
8;1;13;10;0;0;;;;
9;1;16;11;0;0;;;;
10;1;20;10;0;0;;;;
11;1;16;9;0;0;;;;
12;1;50;40;0;0;;;;
13;1;105;90;0;0;;;;
14;1;25;15;0;0;;;;
15;1;40;25;0;0;;;;
16;1;60;30;0;0;;;;
17;1;40;25;0;0;;;;
18;1;15;9;0;0;;;;
19;1;13;7;0;0;;;;
20;1;30;20;0;0;;;;
21;1;90;50;0;0;;;;
22;1;50;30;0;0;;;;
23;1;60;40;0;0;;;;
24;1;100;80;0;0;;;;
25;1;80;65;0;0;;;;
26;1;100;60;0;0;;;;
27;1;100;55;0;0;;;;
28;1;120;70;0;0;;;;
29;1;105;70;0;0;;;;
30;1;80;50;0;0;;;;
31;1;60;40;0;0;;;;
32;1;13;8;0;0;;;;
33;1;16;9;0;0;;;;
34;1;50;30;0;0;;;;
35;1;40;28;0;0;;;;
36;1;60;40;0;0;;;;
37;1;40;30;0;0;;;;
38;1;30;25;0;0;;;;
39;1;150;100;0;0;;;;
40;1;60;35;0;0;;;;
41;1;120;70;0;0;;;;
42;1;90;60;0;0;;;;
43;1;18;10;0;0;;;;
44;1;16;10;0;0;;;;
45;1;100;50;0;0;;;;
46;1;60;40;0;0;;;;
47;1;90;70;0;0;;;;
48;1;85;55;0;0;;;;
49;1;100;70;0;0;;;;
50;1;140;90;0;0;;;;
51;1;60;40;0;0;;;;
52;1;20;11;0;0;;;;
53;1;40;30;0;0;;;;
54;1;36;24;0;0;;;;
55;1;30;20;0;0;;;;
56;1;43;30;0;0;;;;
57;1;80;50;0;0;;;;
58;1;240;120;0;0;;;;
59;1;125;110;0;0;;;;
60;1;25;10;0;0;;;;
61;1;10;5;0;0;;;;
62;1;150;130;0;0;;;;
63;1;50;30;0;0;;;;
64;1;30;20;0;0;;;;
65;1;130;120;0;0;;;;
66;1;150;130;0;0;;;;
67;1;25;15;0;0;;;;
68;1;100;60;0;0;;;;
69;1;40;30;0;0;;;;
70;3;0;0;0;0;;;;
@LINE;;;;;;;;;
from;to;status;I máx (A);r1 (ohm);x1 (ohm);r2 (ohm);x2 (ohm);r0 (ohm);x0 (ohm)
1;2;1;270;1.097;1.074;1.097;1.074;1.074;3.222
1;16;1;270;1.097;1.074;1.097;1.074;1.074;3.222
2;3;1;270;1.463;1.432;1.463;1.432;1.432;4.296
3;4;1;270;0.731;0.716;0.731;0.716;0.716;2.148
4;5;1;270;0.366;0.358;0.366;0.358;0.358;1.074
4;10;1;208;1.08;0.734;1.08;0.734;0.734;2.202
5;6;1;270;1.828;1.79;1.828;1.79;1.79;5.37
6;7;1;270;1.097;1.074;1.097;1.074;1.074;3.222
7;8;1;270;0.731;0.716;0.731;0.716;0.716;2.148
7;68;1;208;1.08;0.734;1.08;0.734;0.734;2.202
8;9;1;270;0.731;0.716;0.731;0.716;0.716;2.148
10;11;1;208;1.62;1.101;1.62;1.101;1.101;3.303
11;12;1;208;1.08;0.734;1.08;0.734;0.734;2.202
12;13;1;208;1.35;0.917;1.35;0.917;0.917;2.751
13;14;1;208;0.81;0.55;0.81;0.55;0.55;1.65
14;15;1;208;1.944;1.321;1.944;1.321;1.321;3.963
16;17;1;270;0.366;0.358;0.366;0.358;0.358;1.074
17;18;1;270;1.463;1.432;1.463;1.432;1.432;4.296
17;23;1;208;2.214;1.505;2.214;1.505;1.505;4.515
18;19;1;270;0.914;0.895;0.914;0.895;0.895;2.685
19;20;1;270;0.804;0.787;0.804;0.787;0.787;2.361
20;21;1;270;1.133;1.11;1.133;1.11;1.11;3.33
21;22;1;270;0.475;0.465;0.475;0.465;0.465;1.395
23;24;1;208;1.62;1.11;1.62;1.11;1.11;3.33
24;25;1;208;1.08;0.734;1.08;0.734;0.734;2.202
25;26;1;208;0.54;0.367;0.54;0.367;0.367;1.101
26;27;1;208;0.54;0.367;0.54;0.367;0.367;1.101
27;28;1;208;1.08;0.734;1.08;0.734;0.734;2.202
28;29;1;208;1.08;0.734;1.08;0.734;0.734;2.202
30;31;1;270;0.731;0.716;0.731;0.716;0.716;2.148
31;32;1;270;0.731;0.716;0.731;0.716;0.716;2.148
32;33;1;270;0.804;0.787;0.804;0.787;0.787;2.361
32;39;1;208;1.08;0.734;1.08;0.734;0.734;2.202
33;34;1;270;1.17;1.145;1.17;1.145;1.145;3.435
34;35;1;270;0.768;0.752;0.768;0.752;0.752;2.256
35;36;1;270;0.731;0.716;0.731;0.716;0.716;2.148
35;47;1;208;0.54;0.367;0.54;0.367;0.367;1.101
36;37;1;270;1.097;1.074;1.097;1.074;1.074;3.222
37;38;1;270;1.463;1.432;1.463;1.432;1.432;4.296
39;40;1;208;0.54;0.367;0.54;0.367;0.367;1.101
40;41;1;208;1.08;0.734;1.08;0.734;0.734;2.202
40;44;1;208;1.188;0.807;1.188;0.807;0.807;2.421
41;42;1;208;1.836;1.248;1.836;1.248;1.248;3.744
42;43;1;208;1.296;0.881;1.296;0.881;0.881;2.643
42;46;1;208;1.08;0.734;1.08;0.734;0.734;2.202
44;45;1;208;0.54;0.367;0.54;0.367;0.367;1.101
47;48;1;208;1.08;0.734;1.08;0.734;0.734;2.202
48;49;1;208;1.08;0.734;1.08;0.734;0.734;2.202
49;50;1;208;1.08;0.734;1.08;0.734;0.734;2.202
51;52;1;270;1.463;1.432;1.463;1.432;1.432;4.296
52;53;1;270;1.463;1.432;1.463;1.432;1.432;4.296
52;57;1;208;0.27;0.183;0.27;0.183;0.183;0.549
53;54;1;270;0.914;0.895;0.914;0.895;0.895;2.685
54;55;1;270;1.097;1.074;1.097;1.074;1.074;3.222
55;56;1;270;1.097;1.074;1.097;1.074;1.074;3.222
55;61;1;208;1.188;0.807;1.188;0.807;0.807;2.421
57;58;1;208;0.27;0.183;0.27;0.183;0.183;0.549
58;59;1;208;0.81;0.55;0.81;0.55;0.55;1.65
59;60;1;208;1.296;0.881;1.296;0.881;0.881;2.643
61;62;1;208;1.188;0.807;1.188;0.807;0.807;2.421
62;63;1;208;0.81;0.55;0.81;0.55;0.55;1.65
62;65;1;208;1.08;0.734;1.08;0.734;0.734;2.202
63;64;1;208;1.62;1.101;1.62;1.101;1.101;3.303
65;66;1;208;0.54;0.367;0.54;0.367;0.367;1.101
66;67;1;208;1.08;0.734;1.08;0.734;0.734;2.202
68;69;1;208;1.62;1.101;1.62;1.101;1.101;3.303
70;30;1;270;0.366;0.358;0.366;0.358;0.358;1.074
70;51;1;270;0.366;0.358;0.366;0.358;0.358;1.074
9;38;0;234;0.381;0.244;0.381;0.244;0.244;0.732
9;50;0;234;0.908;0.726;0.908;0.726;0.726;2.178
15;9;0;234;0.681;0.544;0.681;0.544;0.544;1.632
15;46;0;234;0.681;0.544;0.681;0.544;0.544;1.632
21;27;0;234;0.454;0.363;0.454;0.363;0.363;1.089
22;67;0;234;0.254;0.203;0.254;0.203;0.203;0.609
29;64;0;234;0.254;0.203;0.254;0.203;0.203;0.609
39;59;0;234;0.454;0.363;0.454;0.363;0.363;1.089
43;38;0;234;0.454;0.363;0.454;0.363;0.363;1.089
45;60;0;234;0.254;0.203;0.254;0.203;0.203;0.609
67;15;0;234;0.454;0.363;0.454;0.363;0.363;1.089
@GEN;;;;;;;;;
bus;St (MVA);Scc (MVA);XR;Z2/Z1;X0/X1;R0/X0;Rf;;
1;3;114.3154;50;1;0.85;0;20;;
70;5;114.3154;50;1;0.85;0;20;;
