@Dados CTI
DP_Alimentador	De	Para	I_Nom_Antes(A)	I_Nom_Apos(A)	Ajuste(A)_Fase	Operacao_Fase	Ajuste(A)_Neutro	Operacao_Neutro
Rele	17	18	229.0786	229.0786	263.4403	Nao	34.3618	Nao
Rele	28	29	142.0237	142.0237	163.3272	Nao	21.3035	Nao
Rele	48	49	68.6421	68.6421	78.9384	Nao	10.2963	Nao
Rele	73	74	178.0393	178.0393	204.7452	Nao	26.7059	Nao
Rele	82	83	96.8016	96.8016	111.3218	Nao	14.5202	Nao
Rele	1	2	224.4409	224.4409	258.1071	Nao	33.6661	Sim
Rele	12	13	170.9968	170.9968	196.6464	Nao	25.6495	Sim
Rele	34	35	234.9606	234.9606	270.2046	Nao	35.2441	Sim
Rele	87	88	233.7717	233.7717	268.8374	Nao	35.0658	Sim
Rele	53	54	169.2966	267.3965	194.6911	Sim	25.3945	Sim
Religador	67	68	53.6756	39.5576	61.7269	Nao	8.0513	Nao
Religador	77	78	146.7714	146.7714	168.7871	Nao	22.0157	Nao
Religador	90	91	79.5828	79.5828	91.5202	Nao	11.9374	Nao
Religador	5	6	176.4399	176.4399	202.9059	Nao	26.4660	Sim
Religador	20	21	180.6603	180.6603	207.7593	Nao	27.0990	Sim
Religador	30	31	133.1376	133.1376	153.1082	Nao	19.9706	Sim
Religador	38	39	85.8204	85.8204	98.6935	Nao	12.8731	Sim
Religador	58	59	104.0140	200.8197	119.6161	Sim	15.6021	Sim
Fusivel	8	9	19.6471	19.6471	25K	Nao	-	-
Fusivel	8	10	20.6186	20.6186	25K	Nao	-	-
Fusivel	8	11	21.6349	21.6349	25K	Nao	-	-
Fusivel	14	15	51.7943	51.7943	40K	Nao	-	-
Fusivel	14	16	44.5848	44.5848	40K	Nao	-	-
Fusivel	24	25	2.8254	2.8254	6K	Nao	-	-
Fusivel	24	26	5.4787	5.4787	6K	Nao	-	-
Fusivel	32	33	12.0665	12.0665	10K	Nao	-	-
Fusivel	43	44	2.3564	2.3564	6K	Nao	-	-
Fusivel	43	46	16.5616	16.5616	15K	Nao	-	-
Fusivel	51	52	12.7385	12.7385	10K	Nao	-	-
Fusivel	60	61	41.7196	42.6623	40K	Nao	-	-
Fusivel	80	81	13.3442	13.3442	15K	Nao	-	-
Fusivel	85	86	18.0384	18.0384	15K	Nao	-	-
Fusivel	93	94	28.7535	28.7535	25K	Nao	-	-
Fusivel	71	72	18.8730	75.3480	15K	Sim	-	-
@Dados Restauracao
Falta	N chaveamentos	Tensao Minima (p.u) - Barra	Max. Carr. no trecho (%)	Max. Carr. subestacao (%)	Tempo (minutos)
65	3	0.9285 - 10	41.78	62.47	1.35
@Plano de manobra
Isolamento
Abre (64, 65)
Abre (65, 66)
""
Restauracao
Fecha (60, 72)
