7834.870	0.010000
7452.760	0.011085
6736.800	0.013675
5986.970	0.017229
5401.000	0.021191
4852.940	0.026117
4343.090	0.032772
3894.580	0.040633
3495.880	0.050734
3194.990	0.060497
2862.180	0.075384
2613.220	0.090612
2374.020	0.109792
2178.390	0.130790
1977.010	0.162323
1774.620	0.204300
1656.300	0.238077
1525.900	0.287032
1390.390	0.352691
1289.920	0.419303
1197.920	0.497997
1118.050	0.588510
1046.640	0.692698
 984.706	0.804801
 931.078	0.925742
 880.371	1.075550
 846.697	1.198220
 813.498	1.342910
 780.819	1.518670
 750.953	1.702060
 718.627	1.971590
 688.381	2.276960
 660.068	2.642800
 636.728	3.058240
 620.387	3.413850
 602.654	3.891680
 587.774	4.472030
 573.262	5.144060
 559.108	5.893460
 546.396	6.806270
 533.972	7.915670
 521.309	9.354380
 512.522       10.653000
 503.379       12.180600
 494.399       13.899400
 485.094       16.343700
 477.394       18.969700
 470.758       21.820400
 465.142       25.174800
 458.676       28.784700
 453.204       33.476600
 449.593       38.315200
 444.230       43.460300
 437.617       50.241800
 431.964       56.083900
 425.108       63.171200
 418.360       71.439300
 410.076       81.438600
 399.552       95.473600
 388.131      110.813000
 377.792      127.977000
 366.626      147.798000
 357.574      167.813000
 346.313      197.522000
 336.078      223.822000
 328.108      253.117000
 322.255      284.249000
 316.823      319.211000
 313.357      359.190000
 310.860      407.016000
 309.619      449.822000
 309.929      518.974000
 309.310      599.954000 
