﻿@BASE;;;;;;;;;;;;;;;;
S_base (MVA);V_base (kVA);;;;;;;;;;;;;;;
1;12.66;;;;;;;;;;;;;;;
@BUS;;;;;;;;;;;;;;;;
bus;type;P(kW);Q(kVAr);G;B;V_mag;V_ang;;;;;;;;;
1;3;0;0;0.0;0.0;1;0;;;;;;;;;
2;1;0;0;0.0;0.0;1;0;;;;;;;;;
3;1;0;0;0.0;0.0;1;0;;;;;;;;;
4;1;0;0;0.0;0.0;1;0;;;;;;;;;
5;1;0;0;0.0;0.0;1;0;;;;;;;;;
6;1;2.6;2.2;0.0;0.0;1;0;;;;;;;;;
7;1;40.4;30;0.0;0.0;1;0;;;;;;;;;
8;1;75;54;0.0;0.0;1;0;;;;;;;;;
9;1;30;22;0.0;0.0;1;0;;;;;;;;;
10;1;28;19;0.0;0.0;1;0;;;;;;;;;
11;1;145;104;0.0;0.0;1;0;;;;;;;;;
12;1;145;104;0.0;0.0;1;0;;;;;;;;;
13;1;8;5;0.0;0.0;1;0;;;;;;;;;
14;1;8;5.5;0.0;0.0;1;0;;;;;;;;;
15;1;0;0;0.0;0.0;1;0;;;;;;;;;
16;1;45.5;30;0.0;0.0;1;0;;;;;;;;;
17;1;60;35;0.0;0.0;1;0;;;;;;;;;
18;1;60;35;0.0;0.0;1;0;;;;;;;;;
19;1;0;0;0.0;0.0;1;0;;;;;;;;;
20;1;1;0.6;0.0;0.0;1;0;;;;;;;;;
21;1;114;81;0.0;0.0;1;0;;;;;;;;;
22;1;5;3.5;0.0;0.0;1;0;;;;;;;;;
23;1;0;0;0.0;0.0;1;0;;;;;;;;;
24;1;28;20;0.0;0.0;1;0;;;;;;;;;
25;1;0;0;0.0;0.0;1;0;;;;;;;;;
26;1;14;10;0.0;0.0;1;0;;;;;;;;;
27;1;14;10;0.0;0.0;1;0;;;;;;;;;
28;1;26;18.6;0.0;0.0;1;0;;;;;;;;;
29;1;26;18.6;0.0;0.0;1;0;;;;;;;;;
30;1;0;0;0.0;0.0;1;0;;;;;;;;;
31;1;0;0;0.0;0.0;1;0;;;;;;;;;
32;1;0;0;0.0;0.0;1;0;;;;;;;;;
33;1;14;10;0.0;0.0;1;0;;;;;;;;;
34;1;19.5;14;0.0;0.0;1;0;;;;;;;;;
35;1;6;4;0.0;0.0;1;0;;;;;;;;;
36;1;26;18.55;0.0;0.0;1;0;;;;;;;;;
37;1;26;18.55;0.0;0.0;1;0;;;;;;;;;
38;1;0;0;0.0;0.0;1;0;;;;;;;;;
39;1;24;17;0.0;0.0;1;0;;;;;;;;;
40;1;25;17;0.0;0.0;1;0;;;;;;;;;
41;1;1.2;1;0.0;0.0;1;0;;;;;;;;;
42;1;0;0;0.0;0.0;1;0;;;;;;;;;
43;1;6;4.3;0.0;0.0;1;0;;;;;;;;;
44;1;0;0;0.0;0.0;1;0;;;;;;;;;
45;1;39.22;26.3;0.0;0.0;1;0;;;;;;;;;
46;1;39.22;26.3;0.0;0.0;1;0;;;;;;;;;
47;1;0;0;0.0;0.0;1;0;;;;;;;;;
48;1;79;56.4;0.0;0.0;1;0;;;;;;;;;
49;1;384.7;274.5;0.0;0.0;1;0;;;;;;;;;
50;1;384.7;274.5;0.0;0.0;1;0;;;;;;;;;
51;1;40.5;28.3;0.0;0.0;1;0;;;;;;;;;
52;1;3.6;2.7;0.0;0.0;1;0;;;;;;;;;
53;1;4.35;3.5;0.0;0.0;1;0;;;;;;;;;
54;1;26.4;19;0.0;0.0;1;0;;;;;;;;;
55;1;24;17.2;0.0;0.0;1;0;;;;;;;;;
56;1;0;0;0.0;0.0;1;0;;;;;;;;;
57;1;0;0;0.0;0.0;1;0;;;;;;;;;
58;1;0;0;0.0;0.0;1;0;;;;;;;;;
59;1;100;72;0.0;0.0;1;0;;;;;;;;;
60;1;0;0;0.0;0.0;1;0;;;;;;;;;
61;1;1244;888;0.0;0.0;1;0;;;;;;;;;
62;1;32;23;0.0;0.0;1;0;;;;;;;;;
63;1;0;0;0.0;0.0;1;0;;;;;;;;;
64;1;227;162;0.0;0.0;1;0;;;;;;;;;
65;1;59;42;0.0;0.0;1;0;;;;;;;;;
66;1;18;13;0.0;0.0;1;0;;;;;;;;;
67;1;18;13;0.0;0.0;1;0;;;;;;;;;
68;1;28;20;0.0;0.0;1;0;;;;;;;;;
69;1;28;20;0.0;0.0;1;0;;;;;;;;;
;;;;;;;;;;;;;;;;
;;;;;;;;;;;;;;;;
;;;;;;;;;;;;;;;;
@LINE;;;;;;;;;;;;;;;;
from;to;status;r(ohm);x(ohm);P_loss;Q_loss;I;I máx (A);loading;;;;;;;
1;2;1;0.0005;0.0012;0;0;0;400;0;;;;;;;
2;3;1;0.0005;0.0012;0;0;0;400;0;;;;;;;
3;4;1;0.0015;0.0036;0;0;0;400;0;;;;;;;
4;5;1;0.0251;0.0294;0;0;0;400;0;;;;;;;
5;6;1;0.366;0.1864;0;0;0;400;0;;;;;;;
6;7;1;0.381;0.1941;0;0;0;400;0;;;;;;;
7;8;1;0.0922;0.047;0;0;0;400;0;;;;;;;
8;9;1;0.0493;0.0251;0;0;0;400;0;;;;;;;
9;10;1;0.819;0.2707;0;0;0;400;0;;;;;;;
10;11;1;0.1872;0.0619;0;0;0;200;0;;;;;;;
11;12;1;0.7114;0.2351;0;0;0;200;0;;;;;;;
12;13;1;1.03;0.34;0;0;0;200;0;;;;;;;
13;14;1;1.044;0.345;0;0;0;200;0;;;;;;;
14;15;1;1.058;0.3496;0;0;0;200;0;;;;;;;
15;16;1;0.1966;0.065;0;0;0;200;0;;;;;;;
16;17;1;0.3744;0.1238;0;0;0;200;0;;;;;;;
17;18;1;0.0047;0.0016;0;0;0;200;0;;;;;;;
18;19;1;0.3276;0.1083;0;0;0;200;0;;;;;;;
19;20;1;0.2106;0.069;0;0;0;200;0;;;;;;;
20;21;1;0.3416;0.1129;0;0;0;200;0;;;;;;;
21;22;1;0.014;0.0046;0;0;0;200;0;;;;;;;
22;23;1;0.1591;0.0526;0;0;0;200;0;;;;;;;
23;24;1;0.3463;0.1145;0;0;0;200;0;;;;;;;
24;25;1;0.7488;0.2475;0;0;0;200;0;;;;;;;
25;26;1;0.3089;0.1021;0;0;0;200;0;;;;;;;
26;27;1;0.1732;0.0572;0;0;0;200;0;;;;;;;
3;28;1;0.0044;0.0108;0;0;0;200;0;;;;;;;
28;29;1;0.064;0.1565;0;0;0;200;0;;;;;;;
29;30;1;0.3978;0.1315;0;0;0;200;0;;;;;;;
30;31;1;0.0702;0.0232;0;0;0;200;0;;;;;;;
31;32;1;0.351;0.116;0;0;0;200;0;;;;;;;
32;33;1;0.839;0.2816;0;0;0;200;0;;;;;;;
33;34;1;1.708;0.5646;0;0;0;200;0;;;;;;;
34;35;1;1.474;0.4873;0;0;0;200;0;;;;;;;
3;36;1;0.0044;0.0108;0;0;0;200;0;;;;;;;
36;37;1;0.064;0.1565;0;0;0;200;0;;;;;;;
37;38;1;0.1053;0.123;0;0;0;200;0;;;;;;;
38;39;1;0.0304;0.0355;0;0;0;200;0;;;;;;;
39;40;1;0.0018;0.0021;0;0;0;200;0;;;;;;;
40;41;1;0.7283;0.8509;0;0;0;200;0;;;;;;;
41;42;1;0.31;0.3623;0;0;0;200;0;;;;;;;
42;43;1;0.041;0.0478;0;0;0;200;0;;;;;;;
43;44;1;0.0092;0.0116;0;0;0;200;0;;;;;;;
44;45;1;0.1089;0.1373;0;0;0;200;0;;;;;;;
45;46;1;0.0009;0.0012;0;0;0;200;0;;;;;;;
4;47;1;0.0034;0.0084;0;0;0;300;0;;;;;;;
47;48;1;0.0851;0.2083;0;0;0;300;0;;;;;;;
48;49;1;0.2898;0.7091;0;0;0;300;0;;;;;;;
49;50;1;0.0822;0.2011;0;0;0;300;0;;;;;;;
8;51;1;0.0928;0.0473;0;0;0;200;0;;;;;;;
51;52;1;0.3319;0.1114;0;0;0;200;0;;;;;;;
9;53;1;0.174;0.0886;0;0;0;300;0;;;;;;;
53;54;1;0.203;0.1034;0;0;0;300;0;;;;;;;
54;55;1;0.2842;0.1447;0;0;0;300;0;;;;;;;
55;56;1;0.2813;0.1433;0;0;0;300;0;;;;;;;
56;57;1;1.59;0.5337;0;0;0;300;0;;;;;;;
57;58;1;0.7837;0.263;0;0;0;300;0;;;;;;;
58;59;1;0.3042;0.1006;0;0;0;300;0;;;;;;;
59;60;1;0.3861;0.1172;0;0;0;300;0;;;;;;;
60;61;1;0.5075;0.2585;0;0;0;300;0;;;;;;;
61;62;1;0.0974;0.0496;0;0;0;300;0;;;;;;;
62;63;1;0.145;0.0738;0;0;0;300;0;;;;;;;
63;64;1;0.7105;0.3619;0;0;0;300;0;;;;;;;
64;65;1;1.041;0.5302;0;0;0;300;0;;;;;;;
11;66;1;0.2012;0.0611;0;0;0;200;0;;;;;;;
66;67;1;0.0047;0.0014;0;0;0;200;0;;;;;;;
12;68;1;0.7394;0.2444;0;0;0;200;0;;;;;;;
68;69;1;0.0047;0.0016;0;0;0;200;0;;;;;;;
11;43;0;0.5;0.5;0;0;0;200;0;;;;;;;
13;21;0;0.5;0.5;0;0;0;200;0;;;;;;;
15;46;0;1;0.5;0;0;0;200;0;;;;;;;
27;65;0;1;0.5;0;0;0;200;0;;;;;;;
50;59;0;2;1;0;0;0;200;0;;;;;;;
;;;;;;;;;;;;;;;;
;;;;;;;;;;;;;;;;
@GEN;;;;;;;;;;;;;;;;
bus;St;loading;;;;;;;;;;;;;;
1;6;0;;;;;;;;;;;;;;
