1	2	2
2	3	1
3	4	1
4	5	1
5	6	1
6	7	3
7	8	1
7	9	1
9	10	1
9	11	1
11	12	5
11	13	5
11	14	1
14	15	5
14	16	1
16	17	5
18	19	2
19	20	1
20	21	1
21	22	1
22	23	5
22	24	1
24	25	5
24	26	1
26	27	1
27	28	1
28	29	1
29	30	1
30	31	5
31	32	1
30	33	3
33	34	5
34	35	1
35	36	1
33	37	1
37	38	5
38	39	1
37	40	1
41	42	2
42	43	1
43	44	5
43	45	1
45	46	1
46	47	5
46	48	1
48	49	1
49	50	1
50	51	3
51	52	1
52	53	1
51	54	1
54	55	1
55	56	5
56	57	1
57	58	1
55	59	5
59	60	1
60	61	1
61	62	1
62	63	1
63	64	1
50	65	1
66	67	2
67	68	1
68	69	1
69	70	1
70	71	1
71	72	3
72	73	5
72	74	1
74	75	5
75	76	1
74	77	1
77	78	5
79	80	2
80	81	1
81	82	1
82	83	1
83	84	1
84	85	3
85	86	1
86	87	5
86	88	5
88	89	1
90	91	2
91	92	1
92	93	1
92	94	1
94	95	3
95	96	1
96	97	1
97	98	1
98	99	1
99	100	5
100	101	1
101	102	1
99	103	5
103	104	1
105	106	2
106	107	1
107	108	1
108	109	5
108	110	1
110	111	1
111	112	3
112	113	1
113	114	1
114	115	5
115	116	5
114	117	5
117	118	1
118	119	1
119	120	1
115	121	5
121	122	1
116	123	1
123	124	1
111	125	5
125	126	1
126	127	1
128	129	2
129	130	1
130	131	1
131	132	5
131	133	1
133	134	5
133	135	1
135	136	5
135	137	1
137	138	3
138	139	1
139	140	1
140	141	5
141	142	1
142	143	1
