18	19	2	107.7304930824126	9438.003422209253	8173.550724637682	9865.67235155602	199.12277637166744	4840.654090923277	4192.129413672626	3772.2490619575774	197.26045298954546
19	20	1	107.7304930824126	4840.654090923277	4192.129413672626	3772.2490619575774	197.26045298954546	4827.091583539026	4180.38393773885	3759.03595066974	197.24946166346655
20	21	1	107.7304930824126	4827.091583539026	4180.38393773885	3759.03595066974	197.24946166346655	3615.399876770747	3131.028138122596	2652.065240544729	195.90967817466668
21	22	1	107.7304930824126	3615.399876770747	3131.028138122596	2652.065240544729	195.90967817466668	3219.4925942740683	2788.16237393721	2318.8433224502583	195.2330007074091
22	24	1	95.34389629537289	3219.4925942740683	2788.16237393721	2318.8433224502583	195.2330007074091	2720.0869602992093	2355.6644081219088	1916.0104986759493	194.06868302470278
22	23	5	10.95891905887108	3219.4925942740683	2788.16237393721	2318.8433224502583	195.2330007074091	2584.0840216958095	2237.8824083020295	1885.6994248220872	191.64701079798448
24	25	5	10.998648452071862	2720.0869602992093	2355.6644081219088	1916.0104986759493	194.06868302470278	2505.8615519471186	2170.1397623529033	1775.5590053058647	192.5268275068126
24	26	1	81.47734045844958	2720.0869602992093	2355.6644081219088	1916.0104986759493	194.06868302470278	2664.6180591152324	2307.6269305765763	1872.4043999016772	193.909639418851
26	27	1	75.73889537773836	2664.6180591152324	2307.6269305765763	1872.4043999016772	193.909639418851	2567.909795290428	2223.875117348408	1796.8997791199795	193.61425609972179
27	28	1	75.73889537773836	2567.909795290428	2223.875117348408	1796.8997791199795	193.61425609972179	2529.642667852595	2190.734812857388	1767.2041325236667	193.4904893182558
28	29	1	73.022290672623	2529.642667852595	2190.734812857388	1767.2041325236667	193.4904893182558	2415.421888624788	2091.8167164060533	1685.8111011578696	192.83942384494688
29	30	1	55.61077641197446	2415.421888624788	2091.8167164060533	1685.8111011578696	192.83942384494688	2393.654900381417	2072.9659516234165	1670.376917043148	192.70926631252823
30	33	3	46.93419228371209	2393.654900381417	2072.9659516234165	1670.376917043148	192.70926631252823	2342.8064266673205	2028.9298816433438	1634.40976649967	192.39704528083848
30	31	5	8.676584343646088	2393.654900381417	2072.9659516234165	1670.376917043148	192.70926631252823	2284.4518662230016	1978.3933498718893	1600.8967275092757	191.74803430896617
31	32	1	2.7223364674188715	2284.4518662230016	1978.3933498718893	1600.8967275092757	191.74803430896617	2075.2428182101903	1797.2129995912364	1468.9188074011045	189.75314398693604
33	34	5	23.074745070132987	2342.8064266673205	2028.9298816433438	1634.40976649967	192.39704528083848	2289.273919981254	1982.56937092495	1600.4422579619938	191.91637381620032
33	37	1	23.859447266102354	2342.8064266673205	2028.9298816433438	1634.40976649967	192.39704528083848	2277.9248461759607	1972.7407847001416	1588.6844577717484	191.9810244103393
34	35	1	18.98960266737307	2289.273919981254	1982.56937092495	1600.4422579619938	191.91637381620032	2071.530664106973	1793.9981798350877	1463.3059889478695	189.82307026228244
35	36	1	18.98960266737307	2071.530664106973	1793.9981798350877	1463.3059889478695	189.82307026228244	2017.1729087132442	1746.9229827714178	1429.1735308922055	189.25827642697504
37	40	1	3.5997876051958375	2277.9248461759607	1972.7407847001416	1588.6844577717484	191.9810244103393	2231.338930125192	1932.3961979416067	1555.9620740640871	191.6691822828515
37	38	5	20.259659662156764	2277.9248461759607	1972.7407847001416	1588.6844577717484	191.9810244103393	2086.396144993213	1806.8720639220437	1468.3087370422768	190.12124654235407
38	39	1	11.592216185725759	2086.396144993213	1806.8720639220437	1468.3087370422768	190.12124654235407	1962.3640942025393	1699.4571570538383	1390.6558253666476	188.80304413451464
