41	42	2	129.80000499587388	8807.520193463772	7627.536231884059	9370.792931187372	199.07594733677323	4666.05214838389	4040.919695883406	3696.3340695639563	197.208013083404
42	43	1	129.80000499587388	4666.05214838389	4040.919695883406	3696.3340695639563	197.208013083404	3984.2394004879256	3450.4525355814253	3036.790424091872	196.50544462873552
43	44	5	0.2895808800459288	3984.2394004879256	3450.4525355814253	3036.790424091872	196.50544462873552	1757.7718825274733	1522.2751043267879	1454.0517213591884	182.58769219379326
43	45	1	118.83549587023839	3984.2394004879256	3450.4525355814253	3036.790424091872	196.50544462873552	3974.9950272198244	3442.446673489184	3028.208577710179	196.49412165387724
45	46	1	118.83549587023839	3974.9950272198244	3442.446673489184	3028.208577710179	196.49412165387724	3660.3845948090548	3169.98604672585	2741.454824459569	196.07260504134763
46	48	1	110.48595125064404	3660.3845948090548	3169.98604672585	2741.454824459569	196.07260504134763	3411.7759952386045	2954.6846838985675	2521.9202062425884	195.67973836255413
46	47	5	2.8988172171457554	3660.3845948090548	3169.98604672585	2741.454824459569	196.07260504134763	2769.5891819613407	2398.5345896250833	2086.955559729146	191.97001826767965
48	49	1	102.50627286896705	3411.7759952386045	2954.6846838985675	2521.9202062425884	195.67973836255413	2992.427791151661	2591.518486127893	2164.8282897608474	194.85463335363815
49	50	1	81.20018028841852	2992.427791151661	2591.518486127893	2164.8282897608474	194.85463335363815	2828.280484553682	2449.3627486512505	2029.3235571027437	194.45830174934576
50	65	1	10.549006165536683	2828.280484553682	2449.3627486512505	2029.3235571027437	194.45830174934576	2518.142943381591	2180.775759328977	1779.4862499541684	193.55315847913877
50	51	3	58.418647923946814	2828.280484553682	2449.3627486512505	2029.3235571027437	194.45830174934576	2567.634948225831	2223.637092808311	1818.828897618283	193.71374702703983
51	52	1	5.090965710465444	2567.634948225831	2223.637092808311	1818.828897618283	193.71374702703983	2301.162863881047	1992.8654983663391	1624.5179319079546	192.15458366683868
51	54	1	42.343257306803984	2567.634948225831	2223.637092808311	1818.828897618283	193.71374702703983	2477.719457215235	2145.7679933993836	1747.4987218214121	193.41669898618133
52	53	1	5.090965710465444	2301.162863881047	1992.8654983663391	1624.5179319079546	192.15458366683868	2080.2957227200163	1801.5889432596425	1466.2784901750279	190.59936314513024
54	55	1	42.343257306803984	2477.719457215235	2145.7679933993836	1747.4987218214121	193.41669898618133	2428.104679471776	2102.8003354704297	1708.4141479498746	193.24237814233192
55	56	5	16.298420595619053	2428.104679471776	2102.8003354704297	1708.4141479498746	193.24237814233192	2321.7990126212353	2010.736927411616	1625.3196200219766	192.84103890073072
55	59	5	22.650156122536657	2428.104679471776	2102.8003354704297	1708.4141479498746	193.24237814233192	2242.0100366625306	1941.637647289432	1563.5242003785668	192.51204296041126
56	57	1	4.244501620200827	2321.7990126212353	2010.736927411616	1625.3196200219766	192.84103890073072	2272.0446958554276	1967.6484251444888	1586.7288628710132	192.63887657099542
57	58	1	1.0186943151711962	2272.0446958554276	1967.6484251444888	1586.7288628710132	192.63887657099542	2239.049808774563	1939.074014737461	1561.2412163846154	192.49932146162394
59	60	1	22.650156122536657	2242.0100366625306	1941.637647289432	1563.5242003785668	192.51204296041126	2115.6883337424265	1832.2398435113107	1482.7713803501413	191.21170563010398
60	61	1	21.69173117075002	2115.6883337424265	1832.2398435113107	1482.7713803501413	191.21170563010398	1928.3653707383535	1670.013398837611	1364.3260883549187	189.12151927291052
61	62	1	14.653304296701391	1928.3653707383535	1670.013398837611	1364.3260883549187	189.12151927291052	1732.847708972463	1500.6901368598164	1240.9622635117094	186.65070709194944
62	63	1	4.324677482624105	1732.847708972463	1500.6901368598164	1240.9622635117094	186.65070709194944	1620.240564372925	1403.169488988989	1169.5252807040547	185.0467065495937
63	64	1	0.0	1620.240564372925	1403.169488988989	1169.5252807040547	185.0467065495937	1555.4926635173451	1347.0961620063406	1128.213297003629	184.0496459042412
