105	106	2	143.53627712834827	9438.003422209253	8173.550724637682	9865.67235155602	199.12277637166744	9200.695924591068	7968.036403191818	9442.585329375384	199.07241480255433
106	107	1	143.53627712834827	9200.695924591068	7968.036403191818	9442.585329375384	199.07241480255433	6277.895777788712	5436.817225876091	5415.156338417353	198.14927043960407
107	108	1	141.19270742482755	6277.895777788712	5436.817225876091	5415.156338417353	198.14927043960407	5113.2930290288605	4428.241660132874	4110.844647468932	197.47578223358275
108	109	5	0.41618905177814625	5113.2930290288605	4428.241660132874	4110.844647468932	197.47578223358275	2295.0191496227553	1987.5448857450656	1928.36564066156	186.5530166071663
108	110	1	138.0315518198848	5113.2930290288605	4428.241660132874	4110.844647468932	197.47578223358275	2961.792264433358	2564.9873417315257	2127.016307410092	194.70008760982955
110	111	1	137.9341015130792	2961.792264433358	2564.9873417315257	2127.016307410092	194.70008760982955	1797.2808046025905	1556.4908345199792	1223.7713324617011	189.991223067671
111	112	3	129.35620480710656	1797.2808046025905	1556.4908345199792	1223.7713324617011	189.991223067671	1427.3195047999277	1236.0949504737625	956.5190784471754	186.6454455958622
111	125	5	7.7802827140828335	1797.2808046025905	1556.4908345199792	1223.7713324617011	189.991223067671	1519.6564576616067	1316.0610973600226	1022.4078601592543	187.6501219991724
112	113	1	56.44000318146057	1427.3195047999277	1236.0949504737625	956.5190784471754	186.6454455958622	1350.3516516400532	1169.4388343625606	904.9240485371183	185.40946223696372
113	114	1	41.256350168718754	1350.3516516400532	1169.4388343625606	904.9240485371183	185.40946223696372	1277.5406853445086	1106.3826878765262	856.2489726510718	184.1108093623269
114	115	5	22.365135763873294	1277.5406853445086	1106.3826878765262	856.2489726510718	184.1108093623269	1185.2638585479303	1026.4686116900732	803.3597901142571	181.43013288775168
114	117	5	15.012339275560763	1277.5406853445086	1106.3826878765262	856.2489726510718	184.1108093623269	1262.9883592156978	1093.7800037648203	846.5341201953543	183.83426228467548
115	121	5	7.652883119268481	1185.2638585479303	1026.4686116900732	803.3597901142571	181.43013288775168	1070.4627580639583	927.0479422885434	737.1206213344176	177.75181229286628
115	116	5	12.213955964379672	1185.2638585479303	1026.4686116900732	803.3597901142571	181.43013288775168	1103.598286015762	955.7441512626147	756.3259681590132	178.85965062836087
116	123	1	12.213955964379672	1103.598286015762	955.7441512626147	756.3259681590132	178.85965062836087	962.4108435668134	833.4722394064717	673.7772407487809	173.817051188809
117	118	1	5.175044844299886	1262.9883592156978	1093.7800037648203	846.5341201953543	183.83426228467548	1184.473383615486	1025.7840403175217	801.5855761355405	181.52379974837464
118	119	1	2.218260647239356	1184.473383615486	1025.7840403175217	801.5855761355405	181.52379974837464	1058.678360277331	916.842354437023	729.0853275620974	177.44350425130474
119	120	1	0.0	1058.678360277331	916.842354437023	729.0853275620974	177.44350425130474	986.812999367427	854.6051262369089	687.1047370301236	174.8384087453257
121	122	1	0.0	1070.4627580639583	927.0479422885434	737.1206213344176	177.75181229286628	937.9507762705883	812.2891997496638	659.2518068872535	172.84629622535348
123	124	1	0.0	962.4108435668134	833.4722394064717	673.7772407487809	173.817051188809	910.5639705851997	788.5715302976092	642.8933825554864	171.71864639657684
125	126	1	4.447863577856513	1519.6564576616067	1316.0610973600226	1022.4078601592543	187.6501219991724	1420.1284729391527	1229.867334202908	951.4101957061821	186.56110583888687
126	127	1	2.916623443504126	1420.1284729391527	1229.867334202908	951.4101957061821	186.56110583888687	1345.5436947474677	1165.2750215532812	898.6064368252701	185.62763539534876
