1	2	2	8	10	11	0	0	0
6	7	3	8	10	12	13	15	17
11	12	5	12	0	0	0	0	0
11	13	5	13	0	0	0	0	0
14	15	5	15	0	0	0	0	0
16	17	5	17	0	0	0	0	0
18	19	2	23	25	32	33	37	0
22	23	5	23	0	0	0	0	0
24	25	5	25	0	0	0	0	0
30	31	5	32	0	0	0	0	0
30	33	3	36	40	39	0	0	0
33	34	5	36	0	0	0	0	0
37	38	5	39	0	0	0	0	0
41	42	2	44	47	65	53	55	0
43	44	5	44	0	0	0	0	0
46	47	5	47	0	0	0	0	0
50	51	3	53	58	64	0	0	0
55	56	5	58	0	0	0	0	0
55	59	5	64	0	0	0	0	0
66	67	2	77	0	0	0	0	0
71	72	3	73	76	78	0	0	0
72	73	5	73	0	0	0	0	0
74	75	5	76	0	0	0	0	0
77	78	5	78	0	0	0	0	0
79	80	2	86	0	0	0	0	0
84	85	3	87	89	0	0	0	0
86	87	5	87	0	0	0	0	0
86	88	5	89	0	0	0	0	0
90	91	2	99	0	0	0	0	0
94	95	3	102	104	0	0	0	0
99	100	5	102	0	0	0	0	0
99	103	5	104	0	0	0	0	0
105	106	2	109	127	114	0	0	0
108	109	5	109	0	0	0	0	0
111	112	3	120	115	0	0	0	0
114	115	5	122	124	0	0	0	0
115	116	5	124	0	0	0	0	0
114	117	5	120	0	0	0	0	0
115	121	5	122	0	0	0	0	0
111	125	5	127	0	0	0	0	0
128	129	2	132	134	136	140	0	0
131	132	5	132	0	0	0	0	0
133	134	5	134	0	0	0	0	0
135	136	5	136	0	0	0	0	0
137	138	3	143	0	0	0	0	0
140	141	5	143	0	0	0	0	0
