De,Para,Tipo,Fusivel,IpkNL,tdsNL,IpkFL,tdsFL,aiN,aiF
128,129,2,NaN,14.285563649482,1.33271452494201,142.85563649482,0.178694077732629,1711.14102751822,2431.57410776074
129,130,1,NaN,NaN,NaN,NaN,NaN,NaN,NaN
130,131,1,NaN,NaN,NaN,NaN,NaN,NaN,NaN
131,132,5,6,NaN,NaN,NaN,NaN,NaN,NaN
131,133,1,NaN,NaN,NaN,NaN,NaN,NaN,NaN
133,134,5,10,NaN,NaN,NaN,NaN,NaN,NaN
133,135,1,NaN,NaN,NaN,NaN,NaN,NaN,NaN
135,136,5,6,NaN,NaN,NaN,NaN,NaN,NaN
135,137,1,NaN,NaN,NaN,NaN,NaN,NaN,NaN
137,138,3,NaN,8.4850782409249,10.4749048377884,84.850782409249,1.41053626400887,NaN,NaN
138,139,1,NaN,NaN,NaN,NaN,NaN,NaN,NaN
139,140,1,NaN,NaN,NaN,NaN,NaN,NaN,NaN
140,141,5,40,NaN,NaN,NaN,NaN,NaN,NaN
141,142,1,NaN,NaN,NaN,NaN,NaN,NaN,NaN
142,143,1,NaN,NaN,NaN,NaN,NaN,NaN,NaN
