@BASE
S_base (MVA);V_base (kVA)
1.0;11.4
@BUS
bus;type;V_mag;V_ang;Icc 3f;Icc 2f;Icc FT;Icc FTm
1;3;1.0;0.0;7694.458455963146;6663.5964912280715;7932.477870328246;164.49839176419542
2;1;0.9884494376258133;-0.5465958739071781;4299.856507364455;3723.784968005448;3386.147797068084;163.54892705381988
3;1;0.9794924425782483;-0.850233090370858;3306.677352517343;2863.6665893986906;2453.9984835068203;162.53925112641434
4;1;0.9698230641266029;-1.1813854825794778;2615.818731141799;2265.3654728639744;1871.297442296519;161.3606330754524
5;1;0.9665880430710326;-1.2939434958329215;2418.0464649678165;2094.0896661932875;1712.8136574240987;160.89080123950555
6;1;0.9606451908462542;-1.5070331395223635;2060.5980817255977;1784.5302857638503;1434.767584417777;159.79430482985313
7;1;0.959780915929537;-1.5344463411461327;2004.8952924086389;1736.2902551537115;1392.359495829488;159.58536293198682
8;1;0.9572015710300523;-1.442901466784788;1957.8848096680379;1695.577982856181;1335.3080442448052;159.3195128050711
9;1;0.9566024079196285;-1.4638939858490951;1828.877970869151;1583.8547831944213;1241.4348511740525;158.75323625002025
10;1;0.95573514524229;-1.4867684200130793;1689.5409125943686;1463.1853510398669;1141.1207078371015;158.03591674503028
11;1;0.9564984877676912;-1.4608683926249493;1828.877970869151;1583.8547831944213;1241.4348511740525;158.75323625002025
12;3;1.0;0.0;9032.493027190329;7822.368421052631;9376.361852322643;164.50868968612826
13;1;0.9968603501579838;-0.09950451510354973;7363.106387489501;6376.637182333374;6755.110037791876;164.16320037928193
14;1;0.9833473133186007;-0.5332331391134577;4013.29496602165;3475.6153934549543;3033.5245475541064;162.60246454716844
15;1;0.9639937485654071;-1.4367537441444451;2022.0151540116462;1751.1164902111896;1357.5081264934443;159.73384171412403
16;1;0.9822839877215643;-0.5668624967414818;3623.2655732382036;3137.8400310818706;2687.587944614254;162.2277447407591
17;3;1.0;0.0;5775.022034709915;5001.315789473684;5953.665843174685;164.46731033880155
18;1;0.9872061158929372;-0.5350586892412336;4299.852028171683;3723.7810889107186;3753.724365303343;163.90922766334322
19;1;0.983008864721435;-0.6576830107367095;4006.862306104179;3470.044546552518;3399.2423968914827;163.6624304109132
20;1;0.9790651501187662;-0.7701405563268737;3749.0676280658336;3246.787806410881;3104.916523650503;163.4132282841765
21;1;0.9687580109393079;-1.0630294569427396;3135.8076865458106;2715.689117931182;2462.1730540127637;162.65158932595278
22;1;0.9666597705144913;-1.1179970816126663;3011.521985193339;2608.0545432327754;2340.6530291945974;162.45797909225035
23;1;0.9619818497594362;-1.2396552378170387;2567.6056533667393;2223.6117227161376;1927.5407075889902;161.60481003518615
24;1;0.9593870590640251;-1.3218143123611599;2129.2456563112673;1843.9808292632274;1548.2223923471954;160.38738400261448
25;1;0.9592722194997038;-1.3280399939844587;1910.6306188645867;1654.6546531851156;1368.4347465422532;159.55405434641818
26;1;0.9591322401043815;-1.3383222508556172;1862.7266640784778;1613.168611398604;1329.8094455503572;159.34315908430045
27;1;0.9590581011733738;-1.3441407129215714;1718.880779546614;1488.594421164167;1215.4166738809781;158.63309897438208
28;3;1.0;0.0;11424.951511095409;9894.298245614033;11942.656004833068;164.51653226982035
29;1;0.9961030154778584;-0.1731605429257631;8528.828170891766;7386.181860504636;7520.742066071911;164.26025811032807
30;1;0.9910349491942495;-0.3298996962021314;6592.41442196639;5709.1983616978;5296.275081039892;163.79355853025257
31;1;0.9794580619484531;-0.6920524526010243;4240.605002512773;3672.4716595914347;3098.424546645387;162.64529122017333
32;1;0.9764482708630767;-0.8303757820637584;3816.294330823045;3305.0078388112915;2737.3643609583087;162.3898042077515
33;1;0.9752382229686912;-0.8713856798997306;3258.8172633557174;2822.2185363573344;2293.3938740397257;161.75422581874153
34;3;1.0;0.0;11424.951511095409;9894.298245614033;11942.656004833068;164.51653226982035
35;1;0.9908769116990828;-0.2258517397051163;6630.4637944115575;5742.15008483337;5362.200058236859;163.65363854997454
36;1;0.9847312359036896;-0.38374409422807326;5123.043757757481;4436.68603891727;3889.835831355557;163.0581092905046
37;1;0.9837951732980199;-0.41780705216786385;4167.028513297882;3608.752550810067;3050.3408110613;162.44744107529624
38;1;0.9837121007423567;-0.4215152648380887;4016.6268868580523;3478.500921542677;2924.034492987495;162.32354388442624
39;1;0.983851777246266;-0.5090877114195627;3367.6242383693925;2916.448140828116;2516.6182888747435;162.25088779193055
40;1;0.9836353251216745;-0.5175101736499613;3176.822354689737;2751.2088624716107;2349.5283596423433;161.99516269039296
41;1;0.9824486580026311;-0.5646298226587441;2059.7216778066872;1783.7712977060976;1439.6904812144485;159.4613804604886
42;1;0.9824237037335524;-0.5657452721068886;2003.8479629009812;1735.383241193947;1396.9389205369416;159.2538610638879
43;1;0.9824112266128715;-0.5663030180811104;1950.9052916940184;1689.5335429845102;1356.6497008248964;159.04532624248768
44;1;0.9747892195852833;-0.8854375501262417;2995.4706699870444;2594.153696499973;2089.8557069535404;161.36628417022723
45;1;0.9736591967436841;-0.9199450848844022;2463.222991227573;2133.2136855889717;1689.6857391360168;160.30873662735223
46;1;0.971785756514516;-0.9740323136326686;1830.8773266687936;1585.5862761081153;1232.184134683943;158.1721768161263
47;1;0.9726630418319713;-0.9495245812033293;2110.750441468434;1827.9635033608824;1432.392860761804;159.2885940672334
48;3;1.0;0.0;7836.770232842341;6786.8421052631575;8079.211055538881;164.49785720944718
49;1;0.9971223955844795;-0.11737250587135943;6536.958846472423;5661.1724245385385;6027.957300302812;164.27142093402378
50;1;0.9954702987062377;-0.16346530959982405;6037.862013394487;5228.941888144684;5357.459177674361;164.09462250183472
51;1;0.9900398458696282;-0.31576931025124433;4792.094478771106;4150.075555950926;3898.821138472363;163.49508319653046
52;1;0.9843764386044624;-0.49244301986903943;3471.688816567437;3006.5707091817344;2609.355844965416;162.3779116346296
53;3;1.0;0.0;7694.458455963146;6663.5964912280715;7932.477870328246;164.49839176419542
54;1;0.9781030425732404;-0.9876172824226779;3868.426809812227;3350.155889978181;2960.318803599202;163.2943797084068
55;1;0.9738894365625622;-1.1239213396612775;3568.2301134042764;3090.1779247567315;2682.392454363449;162.97780912035782
56;1;0.969681390087876;-1.261409195627928;3309.685850492582;2866.272025072482;2451.6713671912;162.657654076385
57;1;0.9671592609724214;-1.3444759010135743;3171.222176603048;2746.3589659828212;2331.183679476935;162.46387279238135
58;1;0.9624512248259022;-1.5025251466480074;2925.469799882008;2533.5311647019967;2122.3042141761944;162.0725898467803
59;1;0.960738044161207;-1.5625389033338302;2815.9902933862836;2438.719130882916;2031.2037110706397;161.87512168037034
60;1;0.9580165676526144;-1.6557616002511344;2619.3959299155995;2268.463417876472;1870.4801948278011;161.47661560983855
61;1;0.9575465838271844;-1.6740626897945896;2502.6122072359426;2167.3257472873725;1776.6807648852423;161.20835426440001
62;1;0.9602627433046359;-1.5277368549898172;1885.8294946612518;1633.1762495826142;1302.5051390732765;159.0939034813502
63;3;1.0;0.0;9032.493027190329;7822.368421052631;9376.361852322643;164.50868968612826
64;1;0.9871128701437667;-0.5357480227630191;4332.705432838224;3752.2329719527534;3285.749128995974;163.40663902622913
65;1;0.9655076391101309;-1.175268894198146;2424.0532190182334;2099.291667795234;1685.86393763001;160.74375691283163
66;1;0.9634360696612038;-1.2381599579069877;2323.0154054182185;2011.790354474784;1609.1341913968308;160.47214425156182
67;1;0.961852562719059;-1.3064067107109778;2210.7973719113875;1914.606686695135;1522.250194125859;160.22449519441383
68;1;0.9607591458899097;-1.3386853704292374;2146.870188372346;1859.2441217579346;1474.6242424181444;160.01737981569764
69;1;0.9607506402839245;-1.339074157778158;2106.243361625819;1824.0602577202935;1444.4901969684727;159.87871922111526
70;1;0.956163304738134;-1.723506821183859;2046.1674492923053;1772.0329914839435;1419.9769588904603;159.89382853021672
71;1;0.9570495253523521;-1.6916198989602975;2449.599717968546;2121.4155848639575;1732.8657927984661;161.131100799683
72;1;0.9573937365563517;-1.676024253417047;2530.8410385129323;2191.7726322923904;1799.242441061754;161.27561111740914
73;3;1.0;0.0;9032.493027190329;7822.368421052631;9376.361852322643;164.50868968612826
74;1;0.9964495397707892;-0.1392681125815309;7347.299967478954;6362.948421061355;6720.97179753313;164.28539491613373
75;1;0.9876603793840348;-0.37517928072416096;5208.0578882808;4510.3104356311105;4175.132949072258;163.51549732540164
76;1;0.9789790668351878;-0.7251850612262819;3886.8484918792074;3366.109534628627;2890.8419449999456;162.8924195541579
77;1;0.9634470839929531;-1.371038511102676;2666.5873025729243;2309.3323454371734;1860.4901914056607;161.66781445007715
78;1;0.9606429579676711;-1.4940789295780095;2492.5527041653354;2158.613962078779;1723.9375269714585;161.37845322478148
79;1;0.9564451361874743;-1.6799908728945574;2270.2535119376566;1966.0972143688487;1552.9626183833764;160.93313941880564
80;1;0.9531871801414558;-1.8257199914496807;2122.964510026999;1838.5411970161647;1441.748018084793;160.57764319176763
81;1;0.9819912407820272;-0.5737711535071964;2733.091667957517;2366.9268153227936;1946.6788717746992;160.94252495416728
82;3;1.0;0.0;10900.778240383775;9440.350877192981;11597.966286957231;164.4918813339869
83;1;0.978709281444921;-0.8921086039015772;3781.26135560894;3274.668392305726;2708.1917809007205;162.89697779647616
84;1;0.9765935720649531;-0.983453966167909;3547.660064971729;3072.3637402570694;2514.9759157183516;162.72092911774183
85;1;0.972897089209984;-1.1442634804824328;3201.3489652724193;2772.4495303049416;2235.7974994385163;162.40590665063866
86;1;0.9714381484750264;-1.2116703699959317;2954.044676548627;2558.2777338052965;2041.5301818229948;162.12896783695572
87;3;1.0;0.0;8754.959739895665;7582.017543859647;9282.405067774907;164.46614117208074
88;1;0.9782536701804272;-0.9863739620606672;4038.609340744129;3497.53828504554;3059.591290021139;163.2368150056521
89;1;0.9671470523335559;-1.5127450568682335;3153.0876752691647;2730.6540271427148;2271.311567985835;162.53165326809506
90;1;0.9636311401154276;-1.6900684607363534;2913.1841104284695;2522.891445532226;2071.1432013155986;162.25536400217476
91;1;0.9616693612257385;-1.7575151499445674;2585.962406800227;2239.509137520545;1811.9440408592436;161.59013574097563
92;1;0.9602140006119176;-1.808749260380091;2323.3424082917877;2012.0735472704052;1610.0095394503956;160.91274829665113
93;1;0.9600952252113008;-1.8164386102559482;2166.158075724759;1875.947922190457;1491.4105835595171;160.42924753286823
94;1;0.9612650296524763;-1.2569445859398811;2403.1292009824647;2081.1709366270143;1782.1097548559403;161.20352059676063
@LINE
from;to;P_loss;Q_loss;I (A);loading (%)
1;2;0.011841722012221426;0.04034957130090264;142.49468748202216;0.2226479491906596
2;3;0.012767617972024747;0.02621747507232563;142.49468748202216;0.2226479491906596
3;4;0.013230754124622691;0.027168495110866442;136.76021397885157;0.21368783434195557
4;5;0.0038260664884605996;0.007856579277831307;117.93180922269438;0.18426845191045998
5;6;0.005724356309454124;0.011754594253764575;95.41289265612767;0.14908264477519947
6;7;0.0006073098800950874;0.0012470714331723547;71.7708799132397;0.11214199986443703
7;8;0;0;0;0.0
8;9;0.00011455973286926033;0.00023524097818191625;19.08862856986612;0.029825982140415812
8;10;0.00028385151275269984;0.0005828706635914218;20.031481892910026;0.03129919045767192
8;11;0.00013891182501666062;0.0002852464193090207;21.0197884029768;0.032843419379651254
12;13;0.004077329199912025;0.008372530952491103;131.4970434416426;0.20546413037756656
13;14;0.017668426532952107;0.03602159537428639;131.4970434416426;0.20546413037756656
14;15;0;0;0;0.0
14;16;0.0004638423853570026;0.0009524702416872801;44.352010900238085;0.069300017031622
17;18;0.022699511785671766;0.07734648460302973;258.3099311563816;0.4036092674318462
18;19;0.010489016027947095;0.021538513828379912;258.3099311563816;0.4036092674318462
19;20;0.009157142597274761;0.018803598157762676;241.3535647958433;0.3771149449935052
20;21;0.02076414899897223;0.04263783267727885;209.83125110869696;0.327861329857339
21;22;0.0033372464272770183;0.0068528189995230365;168.2430898927704;0.26287982795745374
22;23;0.0038145233657036265;0.00783287622423111;86.40764889996548;0.13501195140619607
23;24;0.0009118458322438233;0.0018724162509434234;35.90278852258971;0.05609810706654642
24;25;3.812036913957847e-06;7.827770456905807e-06;2.8430968261914265;0.004442338790924104
24;26;1.7916742807644803e-05;3.679086881875155e-05;5.512995335588467;0.00861405521185698
26;27;2.849345414068979e-06;5.8509459265996605e-06;2.6926274870264795;0.004207230448478874
28;29;0.004413974734927525;0.015040210207901198;161.0878424161634;0.25169975377525533
29;30;0.007862004793083702;0.016144116712515387;158.13404620236716;0.24708444719119868
30;31;0.017296295059277298;0.03551681962553888;152.19608007956725;0.23780637512432384
31;32;0.0031029697645594758;0.010573082160721177;145.88478844292226;0.22794498194206603
32;33;0.0003712334765291755;0.0007623038563843377;30.734580590836025;0.04802278217318129
34;35;0.012887883472460386;0.02597252852465299;147.85938505223268;0.23103028914411355
35;36;0.008591922314973589;0.017642954982655695;147.85938505223268;0.23103028914411355
36;37;0.00023174980235906464;0.00047588318194342286;24.283619038055395;0.037943154746961555
37;38;1.041658985125214e-05;2.1389791373945234e-05;11.512019303246603;0.017987530161322818
38;39;0;0;0;0.0
39;40;3.221718138000357e-05;6.615589153603787e-05;14.315861898901503;0.0223685342170336
40;41;0.00010318267224829191;0.00021187892240298112;8.312187135007516;0.012987792398449244
41;42;6.26643721736982e-07;1.2867722224980775e-06;2.305437982150427;0.0036022468471100426
42;43;1.5666292010469137e-07;3.216971412836792e-07;1.1527263110994863;0.0018011348610929474
43;44;0;0;0;0.0
44;45;0.0001926965149467448;0.00039568979023415536;17.505747645132217;0.02735273069551909
43;46;0;0;0;0.0
46;47;0.00011203258474276377;0.0002300516434794157;13.34799119215017;0.02085623623773464
48;49;0.0026432431285305855;0.009006606215733846;134.64486460567912;0.21038260094637362
49;50;0.0021374373446759673;0.004389088898609428;134.64486460567912;0.21038260094637362
50;51;0.006932567605315558;0.014235577754426606;132.81611774599673;0.2075251839781199
51;52;0.004367727606536106;0.00896884523784895;78.57696405313645;0.1227765063330257
53;54;0.03265965623586836;0.1112847545814774;211.66158328320674;0.3307212238800105
54;55;0.008803322977157933;0.018077052525614385;211.66158328320674;0.3307212238800105
55;56;0.008803322977157933;0.018077052525614385;211.66158328320674;0.3307212238800105
56;57;0.005281993786294761;0.01084623151536863;211.66158328320674;0.3307212238800105
57;58;0.009270535649500035;0.019036443432942817;198.28073210883375;0.30981364392005273
58;59;0.002503615776844476;0.005141012549398198;145.7226086920195;0.22769157608128046
59;60;0.003119801250434131;0.00640630943791436;115.02482031880295;0.1797262817481296
60;61;0.0001495135930216002;0.0003070164620061867;30.839978620418815;0.0481874665944044
61;62;0;0;0;0.0
63;64;0.011468284111369485;0.039077116231333066;129.82761210330654;0.20285564391141647
64;65;0.02715879804328285;0.05576882956979455;129.82761210330654;0.20285564391141647
65;66;0.002573129000194195;0.005283753443146858;127.9394586915775;0.19990540420558983
66;67;0.0009726257305040257;0.003314132118754458;89.47150409655929;0.1397992251508739
67;68;0.0009438071903409435;0.0019380468259672806;89.47150409655929;0.1397992251508739
68;69;1.0920442270293679e-07;2.242441962373282e-07;1.1787150824454726;0.001841742316321051
69;70;0;0;0;0.0
70;71;0.00011292295096772778;0.00023187995275052498;12.634515184352567;0.019741429975550888
71;72;7.903979394443419e-05;0.0002693207793662202;32.92752859167351;0.051449263424489855
73;74;0.003921495525318918;0.013362132901086685;164.00122798310124;0.2562519187235957
74;75;0.013741372180284194;0.028217016156461435;164.00122798310124;0.2562519187235957
75;76;0.009453028036455693;0.03221031775384903;161.0410919491505;0.25162670617054766
76;77;0.01701545046562025;0.05797857195692825;161.0410919491505;0.25162670617054766
77;78;0.0025724692804809618;0.008765450881638832;132.8300501600485;0.20754695337507578
78;79;0.003858703920721443;0.01314817632245825;132.8300501600485;0.20754695337507578
79;80;0.003001214160561122;0.010226359361911973;132.8300501600485;0.20754695337507578
80;81;0;0;0;0.0
82;83;0.021965277041107692;0.07484464769562621;150.32638373628942;0.2348849745879522
83;84;0.002196527704110769;0.007484464769562622;150.32638373628942;0.2348849745879522
84;85;0.0038439234821938464;0.013097813346734589;150.32638373628942;0.2348849745879522
85;86;0.000728744635975348;0.0024831298707308153;70.69829228536472;0.11046608169588237
87;88;0.03130813188893312;0.10667956051043877;203.86590226187562;0.31854047228418064
88;89;0.016159035813642898;0.055060418327968395;203.86590226187562;0.31854047228418064
89;90;0.004514243846092475;0.015381867920018803;175.95991574363768;0.2749373683494339
90;91;0.001006059092073669;0.0020274778649423558;50.595916823095926;0.07905612003608739
91;92;0.000559886666268314;0.0011283212205712588;37.744509610959206;0.05897579626712376
92;93;8.343677527398493e-06;1.7133200418856444e-05;5.507233116791448;0.008605051744986637
93;94;0;0;0;0.0
6;62;5.07223546299459e-05;0.00010415506408744617;11.360656477414796;0.01775102574596062
8;68;0.0029855269462132346;0.006130585866651605;87.15939810133712;0.13618655953333925
13;49;0;0;0;0.0
14;81;0.0001698633668421584;0.00034880340214153135;12.893383924836565;0.020145912382557134
15;86;0.003796480720582883;0.007795826823181645;52.53639904586001;0.08208812350915626
16;21;0;0;0;0.0
19;30;0;0;0;0.0
23;94;0.000189550576817573;0.0003892298104116575;28.35245401952866;0.04430070940551353
32;37;0;0;0;0.0
33;44;8.202335291128206e-05;0.00016842963307736543;18.65077396326161;0.029141834317596267
39;52;0.0003394630119017985;0.0006970652687143801;65.71809367214439;0.10268452136272561
45;47;0.00015781073618017274;0.00032405410711806463;16.36162249659987;0.025565035150937297
60;72;0.00031862463421378077;0.0006542750122405115;51.985565476664675;0.08122744605728856
@GEN
bus;loading
1;0.3387315493130217
12;0.31899500387937113
17;0.617000050648296
28;0.5178937042375481
34;0.2874456470360962
48;0.6556008694320045
53;0.5013793474007481
63;0.6145018307539857
73;0.38678563184275605
82;0.4796671299511314
87;0.484705129434381
